# Comments can be made by puting a hastag at the beggining of the line.
# The parser also recognices the hashtag in te middle of a line and ignores the rest of the line

Material: C
Density: 2.26
Width: 3 
Energy: 5 
Energy_Cutoff: 1E-5
N_Samples: 1E7 

